<?xml version="1.0" encoding="utf-8"?>
<!-- Generator: Adobe Illustrator 16.0.0, SVG Export Plug-In . SVG Version: 6.00 Build 0)  -->
<!DOCTYPE svg PUBLIC "-//W3C//DTD SVG 1.1//EN" "http://www.w3.org/Graphics/SVG/1.1/DTD/svg11.dtd">
<svg version="1.1" id="Layer_1" xmlns="http://www.w3.org/2000/svg" xmlns:xlink="http://www.w3.org/1999/xlink" x="0px" y="0px"
	 width="2000px" height="2000px" viewBox="0 0 2000 2000" enable-background="new 0 0 2000 2000" xml:space="preserve">
<g>
	<g>
		<path fill="#545758" d="M1040,574c-10-36-22-72-36-108c56,40,104,88,144,144C1112,596,1076,584,1040,574z"/>
		<path fill="#545758" d="M376,400c66-30,140-48,216-52v170c-92,2-184,14-276,34C334,500,354,450,376,400z"/>
		<path fill="#545758" d="M948,550c-90-20-182-30-276-34V346c76,4,150,24,216,52C912,450,932,500,948,550z"/>
		<path fill="#545758" d="M226,574c-36,10-72,22-108,36c40-56,88-104,144-144C248,502,236,538,226,574z"/>
		<path fill="#545758" d="M52,724c50-22,100-42,150-58c-20,90-30,182-34,276H0C4,862,24,790,52,724z"/>
		<path fill="#545758" d="M592,598v342H250c2-102,16-202,42-300C390,614,492,600,592,598z"/>
		<path fill="#545758" d="M592,1362c-102-2-202-16-300-42c-24-98-38-200-42-300h342V1362z"/>
		<path fill="#545758" d="M204,1296c-52-16-102-36-150-58c-30-68-50-142-54-218h170C172,1112,184,1204,204,1296z"/>
		<path fill="#545758" d="M226,1386c10,36,22,72,36,108c-56-40-104-88-144-144C154,1364,190,1376,226,1386z"/>
		<path fill="#545758" d="M318,1410c90,20,182,30,276,34v170c-76-4-150-24-216-52C354,1510,334,1460,318,1410z"/>
		<path fill="#545758" d="M948,1410c-16,52-36,102-58,150c-66,30-140,48-216,52v-170C766,1440,858,1430,948,1410z"/>
		<path fill="#545758" d="M674,1202l336-92c-6,70-18,140-36,210c-98,24-200,38-300,42V1202z"/>
		<path fill="#545758" d="M1040,1386c36-10,72-22,108-36c-40,56-88,104-144,144C1018,1458,1028,1422,1040,1386z"/>
		<path fill="#545758" d="M1188,1248c-42,18-84,34-126,48c14-68,24-138,30-206l86-24L1188,1248z"/>
		<path fill="#545758" d="M994,732L742,882l-32,18l-14,40h-24V598c102,2,202,16,300,42C982,670,988,700,994,732z"/>
		<path fill="#545758" d="M1090,674l-24,14c-2-8-4-16-4-24C1072,668,1080,670,1090,674z"/>
		<g>
			<path fill="#545758" d="M592,346h40C620,346,606,346,592,346L592,346z"/>
			<path fill="#545758" d="M674,346L674,346c-14,0-26,0-40,0H674z"/>
		</g>
	</g>
	<g>
		<path fill="#F16228" stroke="#F16228" stroke-miterlimit="10" d="M1472,968c0,0-12,228-16,306c0,6-2,12-2,18c-6,34-18,62-36,82
			l206,182l24,96l-280-62l-284,64l22-94l2-2l204-184c-18-20-30-50-36-82c0-6-2-10-2-16c-4-74-16-306-16-306l-528,130l56-140l460-250
			c-2-26-10-188-12-222c-4-70,54-128,132-128s138,58,132,128c-2,34-10,196-12,222l456,244l58,144L1472,968z"/>
	</g>
</g>
</svg>
