<?xml version="1.0" encoding="utf-8"?>
<!-- Generator: Adobe Illustrator 16.0.0, SVG Export Plug-In . SVG Version: 6.00 Build 0)  -->
<!DOCTYPE svg PUBLIC "-//W3C//DTD SVG 1.1//EN" "http://www.w3.org/Graphics/SVG/1.1/DTD/svg11.dtd">
<svg version="1.1" id="Layer_1" xmlns="http://www.w3.org/2000/svg" xmlns:xlink="http://www.w3.org/1999/xlink" x="0px" y="0px"
	 width="2000px" height="2000px" viewBox="0 0 2000 2000" enable-background="new 0 0 2000 2000" xml:space="preserve">
<g>
	<path fill="#545758" d="M1438,260h-306c22,88,44,174,66,262v138H802V522c22-88,44-174,66-262H562c-72,88-146,174-218,262v1218h1312
		V522l0,0C1584,434,1510,348,1438,260z M844,796h322c34,0,76,24,92,54l34,60l64-38l-32,88l-52,130l-148-22l-84-12l58-34l-90-158
		l-92,160L718,910l36-64C768,820,810,796,844,796z M934,1568h-88c-34,0-76-24-92-54l-162-280c-16-30-16-78,0-106l36-62l-60-34l86-12
		l146-20l54,132l34,86l-64-38l-92,160h202V1568L934,1568z M1420,1234l-162,280c-16,30-58,54-92,54h-56v72l-56-72l-88-114l88-114
		l56-72v72h170l-94-164l198-114l38,66C1438,1158,1438,1206,1420,1234z"/>
	<path fill="#545758" d="M1038,522h-76c4-88,8-174,12-262h50C1030,348,1034,434,1038,522z"/>
	<path fill="#545758" d="M1038,522h-76c4-88,8-174,12-262h50C1030,348,1034,434,1038,522z"/>
	<path fill="#F16228" d="M1038,522h-76c4-88,8-174,12-262h50C1030,348,1034,434,1038,522z"/>
</g>
</svg>
