<?xml version="1.0" encoding="utf-8"?>
<!-- Generator: Adobe Illustrator 16.0.0, SVG Export Plug-In . SVG Version: 6.00 Build 0)  -->
<!DOCTYPE svg PUBLIC "-//W3C//DTD SVG 1.1//EN" "http://www.w3.org/Graphics/SVG/1.1/DTD/svg11.dtd">
<svg version="1.1" id="Layer_1" xmlns="http://www.w3.org/2000/svg" xmlns:xlink="http://www.w3.org/1999/xlink" x="0px" y="0px"
	 width="2000px" height="2000px" viewBox="0 0 2000 2000" enable-background="new 0 0 2000 2000" xml:space="preserve">
<g>
	<g>
		<path fill="#545758" d="M1486,960v182l0,0V960L1486,960z"/>
		<path fill="#545758" d="M1524,394v452c-6,2-12,6-20,10c-26-14-56-22-88-22V394c0-14-12-26-26-26H290c-14,0-26,12-26,26v654
			c0,14,12,26,26,26h782v42c-20-6-40-10-62-10c-38,0-72,10-104,32c-2,2-6,4-8,6c-14,10-28,24-38,38c-18,24-30,52-34,84
			c-2,18-2,36,0,54c4,30,16,58,34,84l26,34H362v-118h308v-138H290c-74,0-134-60-134-134V394c0-74,60-134,134-134h1102
			C1466,260,1524,320,1524,394z"/>
	</g>
	<path fill="#F16228" d="M1764,992c-24,0-44,10-58,26v160h-40V960c-16-20-42-32-68-32c-28,0-52,12-70,32v218h-40V960l0,0l-2-2
		c-2-2-2-2-4-4s-4-4-6-6c0,0-2,0-2-2l0,0c-2-2-2-2-4-2l0,0l-2-2l-2-2h-2c-2,0-4-2-4-2s-2,0-2-2c-2-2-6-2-8-4h-2l0,0h-2c-2,0-4-2-8-2
		h-2h-2h-2h-2h-2h-2h-2c0,0,0,0-2,0h-2c-28,0-52,12-68,32v218h-40V654c-16-20-42-32-68-32c-28,0-52,12-68,32v700l-26-36l-60-80
		c-30-40-86-48-124-18c-4,2-6,4-8,8l-2,2l-2,2l-2,2c0,0,0,2-2,2c0,0,0,2-2,2c0,0,0,2-2,2l-2,2c0,0,0,0,0,2c-1.999,2-4,6-6,8v2
		c0,2-1.999,4-1.999,6s-2,4-2,4v2v2c0,2,0,2-2,4v2c0,2,0,2,0,4v2v2v2v2c0,0,0,0,0,1.999c0,4,0,6.001,0,10c0,2,0,2,0,4s0,2,0,4
		s0,2,0,4s0,2,0,4s0,2,0,4s0,2,0,4s0,2,2,4c0,0,0,2,2,2v2v2l0,0c0,0,0,2,1.999,2c0,2,2,2,2,4c2,2,2,4,4,6c0,0,0,0,0,2l2,2l68,92
		L1232,1740h458l152-152v-516C1842,1028,1808,992,1764,992z"/>
</g>
</svg>
